[{"pkg": "com.android.calendar"},
  {"pkg": "com.android.contacts"},
  {"pkg": "com.android.deskclock"},
  {"pkg": "com.android.fileexplorer"},
  {"pkg": "com.android.mms"},
  {"pkg": "com.android.providers.downloads.ui"},
  {"pkg": "com.android.quicksearchbox"},
  {"pkg": "com.android.soundrecorder"},
  {"pkg": "com.android.thememanager"},
  {"pkg": "com.mi.health"},
  {"pkg": "com.milink.service"},
  {"pkg": "com.mipay.wallet"},
  {"pkg": "com.miui.analytics"},
  {"pkg": "com.miui.aod"},
  {"pkg": "com.miui.backup"},
  {"pkg": "com.miui.calculator"},
  {"pkg": "com.miui.cleanmaster"},
  {"pkg": "com.miui.cloudbackup"},
  {"pkg": "com.miui.cloudservice"},
  {"pkg": "com.miui.compass"},
  {"pkg": "com.miui.core"},
  {"pkg": "com.miui.framework"},
  {"pkg": "com.miui.gallery"},
  {"pkg": "com.miui.greenguard"},
  {"pkg": "com.miui.home"},
  {"pkg": "com.miui.hybrid"},
  {"pkg": "com.miui.hybrid.accessory"},
  {"pkg": "com.miui.milivetalk"},
  {"pkg": "com.miui.mipub"},
  {"pkg": "com.miui.miservice"},
  {"pkg": "com.miui.mishare.connectivity"},
  {"pkg": "com.miui.newhome"},
  {"pkg": "com.miui.notes"},
  {"pkg": "com.miui.notification"},
  {"pkg": "com.miui.packageinstaller"},
  {"pkg": "com.miui.performance"},
  {"pkg": "com.miui.personalassistant"},
  {"pkg": "com.miui.screenrecorder"},
  {"pkg": "com.miui.securityadd"},
  {"pkg": "com.miui.securitycenter"},
  {"pkg": "com.miui.smarttravel"},
  {"pkg": "com.miui.smsextra"},
  {"pkg": "com.miui.system"},
  {"pkg": "com.miui.tsmclient"},
  {"pkg": "com.miui.userguide"},
  {"pkg": "com.miui.virtualsim"},
  {"pkg": "com.miui.voiceassist"},
  {"pkg": "com.miui.weather2"},
  {"pkg": "com.miui.wmsvc"},
  {"pkg": "com.miui.yellowpage"},
  {"pkg": "com.xiaomi.account"},
  {"pkg": "com.xiaomi.drivemode"},
  {"pkg": "com.xiaomi.joyose"},
  {"pkg": "com.xiaomi.metok"},
  {"pkg": "com.xiaomi.metoknlp"},
  {"pkg": "com.xiaomi.misettings"},
  {"pkg": "com.xiaomi.mi_connect_service"},
  {"pkg": "com.xiaomi.pass"},
  {"pkg": "com.xiaomi.payment"},
  {"pkg": "com.xiaomi.simactivate.service"},
  {"pkg": "com.xiaomi.vip"},
  {"pkg": "com.xiaomi.vipaccount"},
  {"pkg": "com.xiaomi.xmsf"},
  {"pkg": "com.xiaomi.market.module1"},
  {"pkg": "com.xiaomi.market.module2"},
  {"pkg": "com.xiaomi.market.module3"},
  {"pkg": "com.xiaomi.market.usemodule1"},
  {"pkg": "com.xiaomi.market.usemodule2"},
  {"pkg": "com.mipay.wallet.in"},
  {"pkg": "com.miui.android.fashiongallery"},
  {"pkg": "com.miui.global.packageinstaller"},
  {"pkg": "com.miui.msa.global"},
  {"pkg": "com.xiaomi.mirecycle"}
]